{"count":202,"next_page":"https://Criscras13.github.io/API_testing/api/v2/help_center/en-us/sections.json?page=2\u0026per_page=30","page":1,"page_count":7,"per_page":30,"previous_page":null,"sections":[{"category_id":10948147384211,"created_at":"2025-10-03T19:54:39Z","description":"","html_url":"https://support.knowbe4.com/hc/en-us/sections/45305393064723-Cisco-Integrations","id":45305393064723,"locale":"en-us","name":"Cisco Integrations","outdated":false,"parent_section_id":10969917980435,"position":0,"sorting":"manual","source_locale":"en-us","theme_template":"section_page","updated_at":"2025-10-03T19:55:28Z","url":"https://Criscras13.github.io/API_testing/api/v2/help_center/en-us/sections/45305393064723.json"},{"category_id":10948147384211,"created_at":"2025-10-03T19:27:41Z","description":"","html_url":"https://support.knowbe4.com/hc/en-us/sections/45304403431955-Microsoft-Integrations","id":45304403431955,"locale":"en-us","name":"Microsoft Integrations","outdated":false,"parent_section_id":10969917980435,"position":0,"sorting":"manual","source_locale":"en-us","theme_template":"section_page","updated_at":"2025-10-03T19:29:08Z","url":"https://Criscras13.github.io/API_testing/api/v2/help_center/en-us/sections/45304403431955.json"},{"category_id":360001227394,"created_at":"2025-05-13T19:58:51Z","description":"","html_url":"https://support.knowbe4.com/hc/en-us/sections/41219229384723-Admin-Support","id":41219229384723,"locale":"en-us","name":"Admin Support","outdated":false,"parent_section_id":null,"position":0,"sorting":"manual","source_locale":"en-us","theme_template":"section_page","updated_at":"2025-11-26T20:32:31Z","url":"https://Criscras13.github.io/API_testing/api/v2/help_center/en-us/sections/41219229384723.json"},{"category_id":360001227394,"created_at":"2025-05-13T19:50:27Z","description":"","html_url":"https://support.knowbe4.com/hc/en-us/sections/41218927189523-Learner-Support","id":41218927189523,"locale":"en-us","name":"Learner Support","outdated":false,"parent_section_id":null,"position":0,"sorting":"manual","source_locale":"en-us","theme_template":"section_page","updated_at":"2025-06-06T15:28:20Z","url":"https://Criscras13.github.io/API_testing/api/v2/help_center/en-us/sections/41218927189523.json"},{"category_id":39401660387859,"created_at":"2025-03-14T18:33:20Z","description":"","html_url":"https://support.knowbe4.com/hc/en-us/sections/39403135069587-Admin-Support","id":39403135069587,"locale":"en-us","name":"Admin Support","outdated":false,"parent_section_id":null,"position":0,"sorting":"manual","source_locale":"en-us","theme_template":"section_page","updated_at":"2025-08-15T21:16:35Z","url":"https://Criscras13.github.io/API_testing/api/v2/help_center/en-us/sections/39403135069587.json"},{"category_id":39401641458195,"created_at":"2025-03-14T17:59:28Z","description":"","html_url":"https://support.knowbe4.com/hc/en-us/sections/39401854743571-Deployment","id":39401854743571,"locale":"en-us","name":"Deployment","outdated":false,"parent_section_id":null,"position":0,"sorting":"manual","source_locale":"en-us","theme_template":"section_page","updated_at":"2025-11-18T14:41:00Z","url":"https://Criscras13.github.io/API_testing/api/v2/help_center/en-us/sections/39401854743571.json"},{"category_id":35417481372307,"created_at":"2024-11-21T19:02:45Z","description":"","html_url":"https://support.knowbe4.com/hc/en-us/sections/35656853856403-Getting-Started","id":35656853856403,"locale":"en-us","name":"Getting Started","outdated":false,"parent_section_id":null,"position":0,"sorting":"manual","source_locale":"en-us","theme_template":"section_page","updated_at":"2025-10-28T15:20:46Z","url":"https://Criscras13.github.io/API_testing/api/v2/help_center/en-us/sections/35656853856403.json"},{"category_id":35410892946835,"created_at":"2024-11-14T15:15:57Z","description":"","html_url":"https://support.knowbe4.com/hc/en-us/sections/35411200439187-Getting-Started","id":35411200439187,"locale":"en-us","name":"Getting Started","outdated":false,"parent_section_id":null,"position":0,"sorting":"manual","source_locale":"en-us","theme_template":"section_page","updated_at":"2025-11-19T19:00:55Z","url":"https://Criscras13.github.io/API_testing/api/v2/help_center/en-us/sections/35411200439187.json"},{"category_id":8816505020819,"created_at":"2024-10-29T20:54:34Z","description":"","html_url":"https://support.knowbe4.com/hc/en-us/sections/34892655195155-Egress","id":34892655195155,"locale":"en-us","name":"Egress","outdated":false,"parent_section_id":360011640414,"position":0,"sorting":"manual","source_locale":"en-us","theme_template":"section_page","updated_at":"2025-11-07T20:28:34Z","url":"https://Criscras13.github.io/API_testing/api/v2/help_center/en-us/sections/34892655195155.json"},{"category_id":4406652137875,"created_at":"2024-08-21T19:25:46Z","description":"","html_url":"https://support.knowbe4.com/hc/en-us/sections/32596029184787-Microsoft-Ribbon-PAB","id":32596029184787,"locale":"en-us","name":"Microsoft Ribbon PAB","outdated":false,"parent_section_id":20420703398419,"position":0,"sorting":"manual","source_locale":"en-us","theme_template":"section_page","updated_at":"2025-09-19T14:39:26Z","url":"https://Criscras13.github.io/API_testing/api/v2/help_center/en-us/sections/32596029184787.json"},{"category_id":35410892946835,"created_at":"2024-07-09T13:05:40Z","description":"","html_url":"https://support.knowbe4.com/hc/en-us/sections/31157449158803-AIDA-Training","id":31157449158803,"locale":"en-us","name":"AIDA Training","outdated":false,"parent_section_id":null,"position":0,"sorting":"manual","source_locale":"en-us","theme_template":"section_page","updated_at":"2025-11-26T17:56:19Z","url":"https://Criscras13.github.io/API_testing/api/v2/help_center/en-us/sections/31157449158803.json"},{"category_id":35410892946835,"created_at":"2024-07-09T13:05:20Z","description":"","html_url":"https://support.knowbe4.com/hc/en-us/sections/31157424135059-AIDA-Phishing","id":31157424135059,"locale":"en-us","name":"AIDA Phishing","outdated":false,"parent_section_id":null,"position":0,"sorting":"manual","source_locale":"en-us","theme_template":"section_page","updated_at":"2025-10-29T17:05:02Z","url":"https://Criscras13.github.io/API_testing/api/v2/help_center/en-us/sections/31157424135059.json"},{"category_id":200060614,"created_at":"2024-06-05T13:51:21Z","description":"This section contains articles related to our Google User Provisioning feature.","html_url":"https://support.knowbe4.com/hc/en-us/sections/30042379444499-Google-User-Provisioning-GUP","id":30042379444499,"locale":"en-us","name":"Google User Provisioning (GUP)","outdated":false,"parent_section_id":360000154727,"position":0,"sorting":"manual","source_locale":"en-us","theme_template":"section_page","updated_at":"2025-10-27T20:03:26Z","url":"https://Criscras13.github.io/API_testing/api/v2/help_center/en-us/sections/30042379444499.json"},{"category_id":200218607,"created_at":"2024-05-30T19:10:52Z","description":"In this section, you'll find resources that support our BreachSim tool.","html_url":"https://support.knowbe4.com/hc/en-us/sections/29871158269715-BreachSim","id":29871158269715,"locale":"en-us","name":"BreachSim","outdated":false,"parent_section_id":null,"position":0,"sorting":"manual","source_locale":"en-us","theme_template":"section_page","updated_at":"2025-03-11T18:09:21Z","url":"https://Criscras13.github.io/API_testing/api/v2/help_center/en-us/sections/29871158269715.json"},{"category_id":8816505020819,"created_at":"2024-05-01T15:10:50Z","description":"","html_url":"https://support.knowbe4.com/hc/en-us/sections/28959547665171-Advisories","id":28959547665171,"locale":"en-us","name":"Advisories","outdated":false,"parent_section_id":360011640414,"position":0,"sorting":"manual","source_locale":"en-us","theme_template":"section_page","updated_at":"2024-09-04T11:37:14Z","url":"https://Criscras13.github.io/API_testing/api/v2/help_center/en-us/sections/28959547665171.json"},{"category_id":8816505020819,"created_at":"2024-03-28T20:00:03Z","description":"","html_url":"https://support.knowbe4.com/hc/en-us/sections/27889964583699-Change-Logs-and-Release-Notes","id":27889964583699,"locale":"en-us","name":"Change Logs and Release Notes","outdated":false,"parent_section_id":360000154747,"position":0,"sorting":"manual","source_locale":"en-us","theme_template":"section_page","updated_at":"2025-11-25T22:00:34Z","url":"https://Criscras13.github.io/API_testing/api/v2/help_center/en-us/sections/27889964583699.json"},{"category_id":4406652137875,"created_at":"2024-03-26T20:44:52Z","description":"","html_url":"https://support.knowbe4.com/hc/en-us/sections/27818988423443-Customization","id":27818988423443,"locale":"en-us","name":"Customization","outdated":false,"parent_section_id":27812364314515,"position":0,"sorting":"manual","source_locale":"en-us","theme_template":"section_page","updated_at":"2025-09-12T20:05:44Z","url":"https://Criscras13.github.io/API_testing/api/v2/help_center/en-us/sections/27818988423443.json"},{"category_id":4406652137875,"created_at":"2024-03-26T20:42:41Z","description":"","html_url":"https://support.knowbe4.com/hc/en-us/sections/27818941239955-Multiple-PAB-Instances","id":27818941239955,"locale":"en-us","name":"Multiple PAB Instances","outdated":false,"parent_section_id":27812364314515,"position":0,"sorting":"manual","source_locale":"en-us","theme_template":"section_page","updated_at":"2025-08-15T21:20:19Z","url":"https://Criscras13.github.io/API_testing/api/v2/help_center/en-us/sections/27818941239955.json"},{"category_id":4406652137875,"created_at":"2024-03-26T18:52:07Z","description":"","html_url":"https://support.knowbe4.com/hc/en-us/sections/27814553697939-Localization","id":27814553697939,"locale":"en-us","name":"Localization","outdated":false,"parent_section_id":27812364314515,"position":0,"sorting":"manual","source_locale":"en-us","theme_template":"section_page","updated_at":"2025-08-14T15:06:33Z","url":"https://Criscras13.github.io/API_testing/api/v2/help_center/en-us/sections/27814553697939.json"},{"category_id":10948147384211,"created_at":"2024-03-01T19:15:25Z","description":"","html_url":"https://support.knowbe4.com/hc/en-us/sections/26940101886739-Getting-Started","id":26940101886739,"locale":"en-us","name":"Getting Started","outdated":false,"parent_section_id":10969864451091,"position":0,"sorting":"manual","source_locale":"en-us","theme_template":"section_page","updated_at":"2025-09-29T14:37:42Z","url":"https://Criscras13.github.io/API_testing/api/v2/help_center/en-us/sections/26940101886739.json"},{"category_id":200060614,"created_at":"2024-02-23T18:10:37Z","description":"","html_url":"https://support.knowbe4.com/hc/en-us/sections/26683888559379-Phishing-Templates-and-Landing-Pages","id":26683888559379,"locale":"en-us","name":"Phishing Templates and Landing Pages","outdated":false,"parent_section_id":8594969672211,"position":0,"sorting":"manual","source_locale":"en-us","theme_template":"section_page","updated_at":"2025-07-14T18:27:28Z","url":"https://Criscras13.github.io/API_testing/api/v2/help_center/en-us/sections/26683888559379.json"},{"category_id":200060614,"created_at":"2024-02-16T21:59:42Z","description":"","html_url":"https://support.knowbe4.com/hc/en-us/sections/26429818973075-ModStore-and-Library","id":26429818973075,"locale":"en-us","name":"ModStore and Library","outdated":false,"parent_section_id":4406921551379,"position":0,"sorting":"manual","source_locale":"en-us","theme_template":"section_page","updated_at":"2025-10-29T17:11:50Z","url":"https://Criscras13.github.io/API_testing/api/v2/help_center/en-us/sections/26429818973075.json"},{"category_id":200060614,"created_at":"2024-02-16T21:25:33Z","description":"","html_url":"https://support.knowbe4.com/hc/en-us/sections/26428384978451-Phishing-Templates","id":26428384978451,"locale":"en-us","name":"Phishing Templates","outdated":false,"parent_section_id":360000156548,"position":0,"sorting":"manual","source_locale":"en-us","theme_template":"section_page","updated_at":"2025-10-08T21:32:05Z","url":"https://Criscras13.github.io/API_testing/api/v2/help_center/en-us/sections/26428384978451.json"},{"category_id":200060614,"created_at":"2024-02-16T21:09:00Z","description":"","html_url":"https://support.knowbe4.com/hc/en-us/sections/26427689641235-Dashboard-Reports","id":26427689641235,"locale":"en-us","name":"Dashboard Reports","outdated":false,"parent_section_id":360000156668,"position":0,"sorting":"manual","source_locale":"en-us","theme_template":"section_page","updated_at":"2025-10-13T19:54:39Z","url":"https://Criscras13.github.io/API_testing/api/v2/help_center/en-us/sections/26427689641235.json"},{"category_id":200060614,"created_at":"2024-02-16T15:23:37Z","description":"","html_url":"https://support.knowbe4.com/hc/en-us/sections/26411014901779-Active-Directory-Integration","id":26411014901779,"locale":"en-us","name":"Active Directory Integration","outdated":false,"parent_section_id":360000154727,"position":0,"sorting":"manual","source_locale":"en-us","theme_template":"section_page","updated_at":"2025-11-19T19:01:02Z","url":"https://Criscras13.github.io/API_testing/api/v2/help_center/en-us/sections/26411014901779.json"},{"category_id":200060614,"created_at":"2024-02-16T15:20:52Z","description":"","html_url":"https://support.knowbe4.com/hc/en-us/sections/26410859974291-Password-Management","id":26410859974291,"locale":"en-us","name":"Password Management","outdated":false,"parent_section_id":26266533718035,"position":0,"sorting":"manual","source_locale":"en-us","theme_template":"section_page","updated_at":"2025-10-11T04:03:10Z","url":"https://Criscras13.github.io/API_testing/api/v2/help_center/en-us/sections/26410859974291.json"},{"category_id":200060614,"created_at":"2024-02-16T15:16:41Z","description":"","html_url":"https://support.knowbe4.com/hc/en-us/sections/26410689830803-Smart-Groups","id":26410689830803,"locale":"en-us","name":"Smart Groups","outdated":false,"parent_section_id":360005208193,"position":0,"sorting":"manual","source_locale":"en-us","theme_template":"section_page","updated_at":"2025-11-12T19:20:35Z","url":"https://Criscras13.github.io/API_testing/api/v2/help_center/en-us/sections/26410689830803.json"},{"category_id":200060614,"created_at":"2024-02-13T13:25:36Z","description":"","html_url":"https://support.knowbe4.com/hc/en-us/sections/26266533718035-Account-Security","id":26266533718035,"locale":"en-us","name":"Account Security","outdated":false,"parent_section_id":4406922364307,"position":0,"sorting":"manual","source_locale":"en-us","theme_template":"section_page","updated_at":"2025-10-14T02:16:00Z","url":"https://Criscras13.github.io/API_testing/api/v2/help_center/en-us/sections/26266533718035.json"},{"category_id":200060614,"created_at":"2024-02-12T20:03:03Z","description":"","html_url":"https://support.knowbe4.com/hc/en-us/sections/26244236265875-Microsoft","id":26244236265875,"locale":"en-us","name":"Microsoft","outdated":false,"parent_section_id":20037043491347,"position":0,"sorting":"manual","source_locale":"en-us","theme_template":"section_page","updated_at":"2025-11-26T20:07:27Z","url":"https://Criscras13.github.io/API_testing/api/v2/help_center/en-us/sections/26244236265875.json"},{"category_id":10948147384211,"created_at":"2023-09-06T18:19:40Z","description":"","html_url":"https://support.knowbe4.com/hc/en-us/sections/20416326635027-SecurityTips","id":20416326635027,"locale":"en-us","name":"SecurityTips","outdated":false,"parent_section_id":20416332835347,"position":0,"sorting":"manual","source_locale":"en-us","theme_template":"section_page","updated_at":"2025-06-12T17:13:47Z","url":"https://Criscras13.github.io/API_testing/api/v2/help_center/en-us/sections/20416326635027.json"}],"sort_by":"position","sort_order":"asc"}